…
All of the above is achieved by the data pipeline below.

``` r
hmd_lt %>%
  group_by(cntry, sex, Year) %>%
  summarise(
    e0 = first(ex),
    cv = sqrt(sum(dx*(Age+ax-e0)^2)) / e0
  ) %>% ungroup()
```

    ## # A tibble: 6,916 x 5
    ##    cntry    sex  Year    e0       cv
    ##    <chr>  <chr> <int> <dbl>    <dbl>
    ##  1   AUS female  1921 63.19 129.1517
    ##  2   AUS female  1922 65.12 117.0454
    ##  3   AUS female  1923 63.67 122.7212
    ##  4   AUS female  1924 64.52 121.0953
    ##  5   AUS female  1925 65.39 117.0402
    ##  6   AUS female  1926 65.08 116.9264
    ##  7   AUS female  1927 64.86 118.4499
    ##  8   AUS female  1928 64.72 119.2820
    ##  9   AUS female  1929 65.39 115.0278
    ## 10   AUS female  1930 66.90 112.2689
    ## # ... with 6,906 more rows
…
If, instead of summarising the data for each group in some form, we want to transform some columns in the data frame on a group-by-group basis we can use the `group_by()` together with `mutate()`.

Biologists sometimes express age not in years but in shares of total life-expectancy, i.e. the age of quarter life-expectancy, the age of half life-expectancy... Let's add this *relative* age to each life-table in the data. We need to

1.  group our data into sub-groups defined by the values of country, sex and year
2.  for each sub-group add a new column "relative age" to the life-table calculated as age over total life-expectancy
3.  Re-combine the results of 2 into a data frame with columns identifying the sub-groups

``` r
hmd_lt %>%
  group_by(cntry, sex, Year) %>%
  mutate(relAge = Age / ex[1])
```

    ## # A tibble: 767,676 x 14
    ## # Groups:   cntry, sex, Year [6,916]
    ##    cntry  Year   Age      mx      qx    ax     lx    dx    Lx      Tx
    ##    <chr> <int> <int>   <dbl>   <dbl> <dbl>  <int> <int> <int>   <int>
    ##  1   AUS  1921     0 0.05999 0.05731  0.22 100000  5731 95535 6318513
    ##  2   AUS  1921     1 0.01206 0.01199  0.50  94269  1130 93704 6222977
    ##  3   AUS  1921     2 0.00578 0.00576  0.50  93139   537 92870 6129274
    ##  4   AUS  1921     3 0.00289 0.00288  0.50  92602   267 92468 6036403
    ##  5   AUS  1921     4 0.00325 0.00325  0.50  92335   300 92185 5943935
    ##  6   AUS  1921     5 0.00252 0.00251  0.50  92035   231 91919 5851750
    ##  7   AUS  1921     6 0.00248 0.00248  0.50  91804   228 91690 5759831
    ##  8   AUS  1921     7 0.00181 0.00181  0.50  91576   166 91493 5668141
    ##  9   AUS  1921     8 0.00138 0.00138  0.50  91410   126 91347 5576648
    ## 10   AUS  1921     9 0.00137 0.00137  0.50  91283   125 91221 5485302
    ## # ... with 767,666 more rows, and 4 more variables: ex <dbl>,
    ## #   OpenInterval <lgl>, sex <chr>, relAge <dbl>
…
